<svg width="305" height="36" viewBox="0 0 305 36" fill="none" xmlns="http://www.w3.org/2000/svg">
<path d="M6.54447 20.9131H18.4342C18.284 18.6602 16.6859 15.6722 12.4893 15.6722C8.54268 15.6722 6.84426 18.5618 6.54447 20.9131ZM12.4893 10.7258C19.6833 10.7258 24.5792 16.0152 24.5792 22.1864C24.5792 24.2433 23.2304 25.1252 20.7821 25.1252H6.64419C7.04371 28.1124 9.49196 30.6099 13.5882 30.6099C15.1869 30.6099 16.9857 30.1201 18.4841 29.288C18.8337 29.092 19.2339 28.9937 19.6833 28.9937C21.0321 28.9937 22.1808 30.1201 22.1808 31.4426C22.1808 32.373 21.5812 33.1566 20.832 33.5978C18.4841 34.9196 15.6868 35.5571 12.8889 35.5571C5.54536 35.5571 0 30.7082 0 23.1168C0 16.2604 5.14585 10.7258 12.4893 10.7258Z" fill="#185993"/>
<path d="M25.6274 31.0018C25.6274 29.5816 26.8266 28.406 28.2751 28.406C28.7744 28.406 29.2244 28.5529 29.6239 28.7489C31.5723 29.9245 33.9701 30.7572 36.1684 30.7572C38.9158 30.7572 40.2147 29.8262 40.2147 28.3568C40.2147 26.692 38.1168 26.1039 35.3694 25.5656C31.2226 24.782 25.8774 23.8024 25.8774 18.1702C25.8774 14.2034 29.4238 10.7256 35.7689 10.7256C38.866 10.7256 41.5137 11.5092 43.7121 12.8317C44.4612 13.2238 44.9611 14.0073 44.9611 14.8885C44.9611 16.2111 43.8616 17.2883 42.5128 17.2883C42.1133 17.2883 41.614 17.1907 41.3143 16.9946C39.7654 16.0642 37.8668 15.4767 35.8188 15.4767C33.5207 15.4767 32.0217 16.3087 32.0217 17.6804C32.0217 19.1498 33.9202 19.6881 36.6178 20.2271C40.7645 21.0106 46.3099 22.0879 46.3099 27.9654C46.3099 32.3244 42.5627 35.5568 35.8686 35.5568C32.6213 35.5568 29.5242 34.7733 26.9762 33.2548C26.1772 32.8141 25.6274 31.9322 25.6274 31.0018Z" fill="#185993"/>
<path d="M49.0064 32.1774V14.105C49.0064 12.391 50.405 10.9708 52.2032 10.9708C53.9023 10.9708 55.3508 12.391 55.3508 14.105V32.1774C55.3508 33.8913 53.9023 35.3115 52.1534 35.3115C50.405 35.3115 49.0064 33.8913 49.0064 32.1774ZM48.3569 3.72227C48.3569 1.66539 50.1052 0 52.1534 0C54.252 0 55.9504 1.66539 55.9504 3.72227C55.9504 5.77916 54.252 7.44455 52.1534 7.44455C50.1052 7.44455 48.3569 5.77916 48.3569 3.72227Z" fill="#185993"/>
<path d="M58.248 31.8834C58.248 31.0998 58.498 30.414 58.9474 29.8757L69.4883 16.7497H61.0453C59.4971 16.7497 58.248 15.5255 58.248 14.0561C58.248 12.5376 59.4971 11.3134 61.0453 11.3134H75.3834C77.0818 11.3134 78.4306 12.636 78.4306 14.3014C78.4306 15.0357 78.1813 15.7216 77.7811 16.1622L67.0407 29.5328H75.8826C77.3816 29.5328 78.6307 30.757 78.6307 32.2263C78.6307 33.7449 77.3816 34.969 75.8826 34.969H61.395C59.6467 34.969 58.248 33.598 58.248 31.8834Z" fill="#185993"/>
<path d="M86.5728 20.9131H98.4625C98.3123 18.6602 96.7142 15.6722 92.5177 15.6722C88.5711 15.6722 86.8727 18.5618 86.5728 20.9131ZM92.5177 10.7258C99.7116 10.7258 104.608 16.0152 104.608 22.1864C104.608 24.2433 103.259 25.1252 100.811 25.1252H86.6726C87.072 28.1124 89.5203 30.6099 93.6165 30.6099C95.2153 30.6099 97.014 30.1201 98.5124 29.288C98.8621 29.092 99.2623 28.9937 99.7116 28.9937C101.06 28.9937 102.209 30.1201 102.209 31.4426C102.209 32.373 101.61 33.1566 100.86 33.5978C98.5124 34.9196 95.7151 35.5571 92.9172 35.5571C85.5737 35.5571 80.0283 30.7082 80.0283 23.1168C80.0283 16.2604 85.1742 10.7258 92.5177 10.7258Z" fill="#185993"/>
<path d="M109.231 28.985C111.009 28.985 112.505 30.451 112.505 32.1946C112.505 33.9389 111.009 35.4049 109.231 35.4049C107.452 35.4049 105.957 33.9389 105.957 32.1946C105.957 30.451 107.452 28.985 109.231 28.985Z" fill="#185993"/>
<path d="M144.72 21.1383V32.7101C144.72 34.0973 143.548 35.2466 142.133 35.2466C140.719 35.2466 139.546 34.0973 139.546 32.7101V22.8819C139.546 21.0985 138.739 19.8306 136.637 19.8306C134.817 19.8306 133.322 21.0197 132.594 22.0498V32.7101C132.594 34.0973 131.422 35.2466 130.007 35.2466C128.592 35.2466 127.421 34.0973 127.421 32.7101V22.8819C127.421 21.0985 126.612 19.8306 124.51 19.8306C122.732 19.8306 121.236 21.0197 120.468 22.0896V32.7101C120.468 34.0973 119.296 35.2466 117.922 35.2466C116.467 35.2466 115.335 34.0973 115.335 32.7101V18.087C115.335 16.6601 116.467 15.5107 117.881 15.5107C119.336 15.5107 120.508 16.6601 120.508 18.087V18.2851C121.357 17.1357 123.904 15.3524 126.855 15.3524C129.724 15.3524 131.543 16.6601 132.271 18.8396C133.403 17.096 135.99 15.3524 138.981 15.3524C142.578 15.3524 144.72 17.2153 144.72 21.1383Z" fill="#185993"/>
<path d="M152.198 23.593H161.819C161.697 21.7699 160.404 19.3526 157.008 19.3526C153.815 19.3526 152.441 21.6904 152.198 23.593ZM157.008 15.35C162.829 15.35 166.79 19.6301 166.79 24.6231C166.79 26.2878 165.699 27.0013 163.718 27.0013H152.279C152.602 29.4186 154.583 31.4397 157.898 31.4397C159.191 31.4397 160.646 31.0429 161.858 30.3699C162.142 30.2109 162.465 30.1314 162.829 30.1314C163.92 30.1314 164.85 31.0429 164.85 32.1134C164.85 32.866 164.365 33.5 163.758 33.8571C161.858 34.927 159.595 35.4423 157.332 35.4423C151.39 35.4423 146.903 31.5186 146.903 25.3763C146.903 19.8283 151.066 15.35 157.008 15.35Z" fill="#185993"/>
<path d="M183.036 31.6267C183.036 32.0832 183.381 32.4899 183.96 32.5018H184.108C184.959 32.5018 185.92 32.1571 186.413 30.9369L188.668 25.3164C188.705 25.2056 188.754 25.07 188.754 24.9593C188.754 24.4414 188.348 24.0221 187.818 24.0221C187.436 24.0221 187.078 24.2442 186.955 24.6141L185.747 28.0157L184.515 24.6141C184.391 24.2318 184.034 24.0221 183.652 24.0221C183.134 24.0221 182.728 24.4414 182.728 24.9593C182.728 25.07 182.764 25.2056 182.814 25.3164L184.761 30.1726L184.626 30.4929C184.515 30.7273 184.256 30.8013 183.849 30.8257L183.763 30.8381C183.381 30.8628 183.036 31.1833 183.036 31.6267ZM179.032 28.558C178.625 28.558 178.133 28.3483 177.898 28.028V26.2039C178.133 25.8836 178.625 25.6615 179.032 25.6615C179.784 25.6615 180.351 26.2162 180.351 27.1039C180.351 28.0033 179.784 28.558 179.032 28.558ZM179.661 23.9855C179.008 23.9855 178.367 24.2318 177.898 24.8357V22.7036C177.898 22.186 177.479 21.7546 176.949 21.7546C176.432 21.7546 176 22.186 176 22.7036V29.2483C176 29.7658 176.432 30.1973 176.949 30.1973C177.417 30.1973 177.861 29.8647 177.923 29.4207C178.416 29.9877 179.008 30.2342 179.661 30.2342C181.127 30.2342 182.286 29.1251 182.286 27.1039C182.286 25.1564 181.14 23.9855 179.661 23.9855Z" fill="#0B5D3A"/>
<path d="M208.611 24.0019C207.534 25.3731 205.057 25.8034 204.085 27.1019C203.933 27.3047 203.804 27.5596 203.804 27.5596C203.804 27.5596 201.74 26.0753 201.769 26.0239C201.795 25.972 202.672 26.0259 203.671 26.7773C203.719 26.8137 203.737 26.798 203.837 26.6767C205.061 25.1962 206.647 24.9967 207.804 23.7126C208.961 22.4296 209.391 19.6005 209.225 19.0689C209.096 18.6516 208.828 18.3721 208.47 18.2567C208.115 18.138 207.715 18.1578 207.338 18.2225C206.575 18.3629 205.87 18.6668 205.234 19.0257C204.602 19.3876 203.686 19.9048 202.858 20.9267C202.032 21.9469 201.336 24.1167 201.234 24.4602C201.132 24.8036 201.03 25.1703 200.943 25.4708C200.912 25.4446 200.858 25.0582 200.994 24.3542C201.066 23.9801 201.47 21.9792 202.536 20.5781C203.409 19.4308 204.317 18.8934 204.975 18.5003C205.632 18.1097 206.37 17.7735 207.201 17.6116C207.618 17.5381 208.07 17.4978 208.562 17.6549C208.804 17.7349 209.059 17.8788 209.27 18.1047C209.482 18.3261 209.637 18.6182 209.727 18.9071C209.953 19.6428 209.884 22.3802 208.611 24.0019ZM202.927 29.261C202.835 29.587 202.741 29.9588 202.466 30.4509C202.198 30.9323 201.56 31.546 200.872 31.6912C200.04 31.8711 199.098 31.3641 198.714 30.7721C198.369 30.2396 198.374 29.5819 198.549 29.0208C198.701 28.5341 199.019 28.0217 199.292 27.6451C199.584 27.2421 199.864 26.8642 200.041 26.5388L200.178 26.2914L200.376 26.4604C201.403 27.3426 202.103 27.7945 202.103 27.7945C202.103 27.7945 202.003 28.1785 200.476 27.1749C200.194 27.529 200.007 27.7648 199.736 28.1205C199.512 28.4013 199.254 28.8534 199.131 29.2007C199.008 29.5468 198.919 29.966 199.139 30.4263C199.361 30.888 200.151 31.4213 200.786 31.3071C201.421 31.1924 201.825 30.8168 202.122 30.3878C202.426 29.9533 202.606 29.5178 202.725 29.2116C202.843 28.9012 202.898 28.7151 202.898 28.7161C202.898 28.7161 203.014 28.9336 202.927 29.261ZM212.801 17.6911C207.705 12.5947 195.027 16.4696 193.884 23.5615C193.019 28.9323 198.876 35.2104 202.769 35.2104C211.754 35.2104 216.912 21.744 212.801 17.6911Z" fill="#239B37"/>
<path d="M297.318 28.6657C295.715 28.6657 295.147 28.097 295.147 26.4934C295.147 24.8899 295.715 24.3216 297.318 24.3216C298.921 24.3216 299.49 24.8899 299.49 26.4934C299.49 28.1178 298.942 28.6657 297.318 28.6657ZM297.318 22.5399C296.456 22.5399 295.733 22.6952 295.147 22.9934V22.8281C295.147 22.8281 294.852 22.5399 294.213 22.5399C293.574 22.5399 293.365 22.8281 293.365 22.8281V26.4788L293.365 26.4934V33.1764C293.365 33.1764 293.66 33.4647 294.299 33.4647C294.938 33.4647 295.147 33.1764 295.147 33.1764V29.9936C295.733 30.2917 296.456 30.4471 297.318 30.4471C299.904 30.4471 301.272 29.08 301.272 26.4934C301.272 23.9069 299.904 22.5399 297.318 22.5399Z" fill="#0A5D39"/>
<path d="M291.454 27.9483C290.534 27.9483 290.209 28.275 290.209 29.1948C290.209 30.1158 290.535 30.4415 291.454 30.4408C292.373 30.4415 292.699 30.1151 292.698 29.1948C292.698 28.2625 292.383 27.9479 291.454 27.9483Z" fill="#0A5D39"/>
<path d="M304.389 28.6622H304.099C303.843 28.6622 303.715 28.5109 303.705 28.1716V19.408C303.705 19.408 303.515 19.1552 302.792 19.1552C302.069 19.1552 301.925 19.408 301.925 19.408V28.6765C301.925 29.9863 302.622 30.4427 303.497 30.4427C303.998 30.4427 304.544 30.2408 304.544 30.2408C304.544 30.2408 304.677 30.1319 304.677 29.5196C304.677 28.9076 304.389 28.6622 304.389 28.6622Z" fill="#0A5D39"/>
<path d="M232.884 22.083C230.698 22.083 229.924 22.8582 229.924 25.0443C229.924 27.2299 230.698 28.0044 232.884 28.0044C235.07 28.0044 235.844 27.2299 235.844 25.0443C235.844 22.8307 235.097 22.083 232.884 22.083ZM232.884 30.4342C229.358 30.4342 227.494 28.5704 227.494 25.0443C227.494 21.5181 229.358 19.6539 232.884 19.6539C236.41 19.6539 238.274 21.5177 238.274 25.0443C238.274 28.5704 236.41 30.4342 232.884 30.4342Z" fill="#239B37"/>
<path d="M257.563 20.0497V25.0443C257.563 27.7136 257.111 28.0042 255.33 28.0042C253.548 28.0042 253.097 27.7136 253.097 25.0443H253.096V20.0497C253.096 20.0497 252.572 19.755 251.838 19.755C251.104 19.755 250.667 20.0497 250.667 20.0497V25.0508C250.668 27.8475 251.235 30.4342 255.33 30.4342C259.424 30.4342 259.992 27.8475 259.992 25.0508V20.0497C259.992 20.0497 259.556 19.755 258.797 19.755C258.038 19.755 257.563 20.0497 257.563 20.0497Z" fill="#239B37"/>
<path d="M275.533 20.4604C275.533 20.4604 275.37 20.0843 274.535 19.8563C273.669 19.6202 273.093 20.0587 273.093 20.0587L271.015 25.8493L269.27 20.99L269.022 20.3037L268.942 20.0462H267.032L266.934 20.3037L266.688 20.99L264.941 25.8493L262.869 20.0587C262.869 20.0587 262.407 19.72 261.536 19.72C260.738 19.72 260.351 20.0587 260.351 20.0587L263.881 30.0295C263.881 30.0295 264.161 30.3519 264.932 30.3519C265.703 30.3519 266.057 30.0295 266.057 30.0295L267.978 24.5827L269.955 30.0295C269.955 30.0295 270.391 30.3519 271.008 30.3519C271.625 30.3519 272.106 30.0295 272.106 30.0295L275.533 20.4604Z" fill="#239B37"/>
<path d="M244.423 28.0044C242.237 28.0044 241.463 27.2299 241.463 25.0443C241.463 22.8582 242.237 22.083 244.422 22.083C246.636 22.083 247.384 22.8306 247.384 25.0443C247.384 27.2299 246.609 28.0044 244.423 28.0044ZM244.422 19.6538C243.247 19.6538 242.261 19.8657 241.463 20.2726V15.9336C241.463 15.9336 241.178 15.5401 240.307 15.5401C239.436 15.5401 239.034 15.9336 239.034 15.9336V25.0443C239.034 28.5703 240.897 30.4342 244.423 30.4342C247.949 30.4342 249.812 28.5703 249.812 25.0443C249.812 21.5177 247.949 19.6538 244.422 19.6538Z" fill="#239B37"/>
<path d="M281.814 23.8402C282.119 22.5724 282.965 22.0875 284.641 22.0875C286.344 22.0875 287.178 22.5587 287.475 23.8399L281.814 23.8402ZM289.632 28.2293C289.62 28.2123 289.281 27.7316 288.634 27.4139C287.975 27.0906 287.45 27.1645 287.45 27.1645L287.447 27.1649C287.362 27.1741 287.291 27.2095 287.267 27.234C286.848 27.6745 286.033 28.0198 284.642 28.0198C282.718 28.0198 281.886 27.42 281.711 25.7906H290C290 25.7906 290.041 25.2663 290.041 25.0536C290.041 21.5218 288.174 19.654 284.641 19.654C281.109 19.654 279.242 21.5212 279.242 25.0536C279.242 28.5868 281.109 30.4537 284.642 30.4537C287.201 30.4537 288.725 29.3613 289.626 28.2368L289.632 28.2293Z" fill="#239B37"/>
<path d="M278.325 30.0539C278.325 30.0539 277.99 30.4457 277.154 30.4457C276.319 30.4457 275.896 30.0539 275.896 30.0539V20.0491C275.896 20.0491 276.092 19.7036 277.078 19.7036C278.066 19.7036 278.325 20.0491 278.325 20.0491V30.0539Z" fill="#239B37"/>
<path d="M277.13 15.35C275.983 15.35 275.577 15.7572 275.577 16.9044C275.576 18.0521 275.983 18.4586 277.129 18.4579C278.275 18.4586 278.683 18.0521 278.682 16.9044C278.683 15.7419 278.291 15.3497 277.13 15.35Z" fill="#239B37"/>
<path d="M218.506 23.8402C218.812 22.5724 219.657 22.0875 221.333 22.0875C223.036 22.0875 223.871 22.5587 224.167 23.8399L218.506 23.8402ZM226.324 28.2293C226.312 28.2123 225.973 27.7316 225.326 27.4139C224.667 27.0906 224.142 27.1645 224.142 27.1645L224.139 27.1649C224.054 27.1741 223.983 27.2095 223.96 27.234C223.541 27.6745 222.725 28.0198 221.334 28.0198C219.41 28.0198 218.578 27.42 218.404 25.7906H226.692C226.692 25.7906 226.733 25.2663 226.733 25.0536C226.733 21.5218 224.866 19.654 221.333 19.654C217.801 19.654 215.934 21.5212 215.934 25.0536C215.934 28.5868 217.801 30.4537 221.334 30.4537C223.893 30.4537 225.418 29.3613 226.318 28.2368L226.324 28.2293Z" fill="#0A5D39"/>
</svg>
